{
	"id": "c5bd1645-6c89-4741-8583-025e241de5d9",
	"name": "Transferencia",
	"values": [
		{
			"key": "servidor",
			"value": "jbosspagseguro.duckdns.org",
			"enabled": true
		},
		{
			"key": "historyid",
			"value": "881",
			"enabled": true
		},
		{
			"key": "step",
			"value": "1",
			"enabled": true
		},
		{
			"key": "stephistory",
			"value": "",
			"enabled": true
		},
		{
			"key": "sucursal",
			"value": "",
			"enabled": true
		},
		{
			"key": "usuario",
			"value": "",
			"enabled": true
		}
	],
	"_postman_variable_scope": "environment",
	"_postman_exported_at": "2019-12-16T19:29:31.493Z",
	"_postman_exported_using": "Postman/7.12.0"
}
