{
	"id": "8da88888-fc60-4491-b9b4-b7070fdad6ec",
	"name": "Validacion Asientos diferidos",
	"values": [
		{
			"key": "servidor",
			"value": "jbosspagseguro.duckdns.org",
			"enabled": true
		},
		{
			"key": "historyid",
			"value": "882",
			"enabled": true
		},
		{
			"key": "stephistory",
			"value": "1",
			"enabled": true
		},
		{
			"key": "step",
			"value": "",
			"enabled": true
		},
		{
			"key": "password",
			"value": "",
			"enabled": true
		}
	],
	"_postman_variable_scope": "environment",
	"_postman_exported_at": "2019-12-16T19:31:50.207Z",
	"_postman_exported_using": "Postman/7.12.0"
}